<?xml version="1.0" standalone="no"?>
<!DOCTYPE svg PUBLIC "-//W3C//DTD SVG 20010904//EN"
 "http://www.w3.org/TR/2001/REC-SVG-20010904/DTD/svg10.dtd">
<svg version="1.0" xmlns="http://www.w3.org/2000/svg"
 width="700.000000pt" height="700.000000pt" viewBox="0 0 700.000000 700.000000"
 preserveAspectRatio="xMidYMid meet">
<metadata>
Created by potrace 1.11, written by Peter Selinger 2001-2013
</metadata>
<g transform="translate(0.000000,700.000000) scale(0.100000,-0.100000)"
fill="#000000" stroke="none">
<path d="M3374 6829 c-663 -35 -1294 -265 -1826 -666 -646 -487 -1098 -1200
-1258 -1983 -55 -270 -64 -369 -64 -680 0 -311 9 -410 64 -680 227 -1112 1027
-2044 2102 -2446 577 -216 1230 -265 1846 -138 1178 242 2158 1136 2507 2288
101 337 140 604 140 976 0 260 -9 368 -46 580 -148 834 -597 1567 -1274 2079
-514 389 -1162 633 -1770 665 -226 13 -274 13 -421 5z m-1437 -1504 c50 -21
72 -42 94 -90 90 -197 -169 -353 -304 -183 -69 87 -35 222 67 269 50 23 95 24
143 4z m771 -447 c153 -29 333 -170 405 -318 54 -111 70 -186 64 -300 -6 -127
-28 -182 -174 -441 -241 -429 -237 -419 -241 -480 -13 -174 194 -272 318 -151
25 24 170 268 425 717 214 374 405 705 426 735 179 264 556 333 817 150 164
-115 255 -290 255 -490 0 -101 -20 -186 -65 -273 -18 -35 -240 -423 -493 -862
-439 -762 -463 -802 -535 -875 -131 -133 -266 -186 -450 -177 -193 9 -346 91
-448 239 -70 102 -973 1711 -993 1769 -100 295 73 641 369 740 108 36 197 41
320 17z m2304 -2404 c90 -30 157 -124 158 -219 0 -78 -17 -122 -68 -175 -155
-160 -417 -51 -415 172 2 167 163 278 325 222z"/>
</g>
</svg>
