<?xml version="1.0" encoding="utf-8"?>
<!-- Generator: Adobe Illustrator 21.1.0, SVG Export Plug-In . SVG Version: 6.00 Build 0)  -->
<svg version="1.1" id="Layer_1" xmlns="http://www.w3.org/2000/svg" xmlns:xlink="http://www.w3.org/1999/xlink" x="0px" y="0px"
	 viewBox="0 0 24 24" style="enable-background:new 0 0 24 24;" xml:space="preserve">
<g>
	<g>
		<g>
			<path d="M21.7,19.7h-4H14h-3.7H6.7H2.3C2.1,19.7,2,19.8,2,20s0.1,0.3,0.3,0.3h19.3c0.2,0,0.3-0.1,0.3-0.3S21.9,19.7,21.7,19.7z"
				/>
		</g>
	</g>
	<g>
		<g>
			<path d="M20.7,16.7H9c-0.2,0-0.3-0.1-0.3-0.3V12c0-0.2-0.1-0.3-0.3-0.3h-4C4.1,11.7,4,11.8,4,12v1c0,0.2,0.1,0.3,0.3,0.3l1.1,0.3
				v3.1H3.7c-0.2,0-0.3,0.1-0.3,0.3v1c0,0.2,0.1,0.3,0.3,0.3h1.7c0,0.7,0.6,1.3,1.3,1.3S8,19.1,8,18.3h1c0,0.7,0.6,1.3,1.3,1.3
				c0.7,0,1.3-0.6,1.3-1.3h1c0,0.7,0.6,1.3,1.3,1.3s1.3-0.6,1.3-1.3h1c0,0.7,0.6,1.3,1.3,1.3c0.7,0,1.3-0.6,1.3-1.3h1.7
				c0.2,0,0.3-0.1,0.3-0.3v-1C21,16.8,20.9,16.7,20.7,16.7z"/>
		</g>
	</g>
	<g>
		<g>
			<path d="M19.7,12.7H18V12c0-0.4-0.3-0.8-0.7-0.9c0-0.1,0-0.1,0.1-0.2c0-0.4-0.1-0.7-0.3-1c0.1-0.3,0.1-0.8-0.1-1.1
				c-0.1-0.2-0.4-0.4-0.8-0.5c0.1-0.5-0.2-1.1-0.6-1.4c-0.5-0.5-1.3-0.6-1.9-0.4c-0.1-0.1-0.2-0.3-0.3-0.4C13.2,6.1,13,6,12.8,6
				c0.1-0.5,0-1-0.3-1.4c-0.4-0.6-1-0.9-1.8-0.9c-0.8,0-1.6,0.4-2,1.1c-0.3,0.5-0.3,1-0.1,1.5C7.8,6.9,7.7,7.8,8,8.4
				c0.3,0.6,1.1,1.2,2.1,1c0.1,0.3,0.4,0.5,0.7,0.7c0.5,0.2,1,0.3,1.5,0.1c0.1,0.3,0.2,0.5,0.4,0.7c0.6,0.6,1.7,0.7,2.6,0.5
				c0.2,0.2,0.5,0.3,0.8,0.3c0,0.1-0.1,0.2-0.1,0.3v0.7h-1.7C14.1,12.3,13.6,12,13,12s-1.1,0.3-1.3,0.7H9.7c-0.2,0-0.3,0.1-0.3,0.3
				v3h10.3c0.6,0,1-0.7,1-1.7S20.2,12.7,19.7,12.7z"/>
		</g>
	</g>
</g>
</svg>
