<?xml version="1.0" encoding="utf-8"?>
<!-- Generator: Adobe Illustrator 21.1.0, SVG Export Plug-In . SVG Version: 6.00 Build 0)  -->
<svg version="1.1" id="Capa_1" xmlns="http://www.w3.org/2000/svg" xmlns:xlink="http://www.w3.org/1999/xlink" x="0px" y="0px"
	 viewBox="0 0 24 24" style="enable-background:new 0 0 24 24;" xml:space="preserve">
<g>
	<path d="M7.9,14.6c-1,0-1.8,0.8-1.8,1.8c0,1,0.8,1.8,1.8,1.8c1,0,1.8-0.8,1.8-1.8C9.7,15.4,8.9,14.6,7.9,14.6z M7.9,17.3
		c-0.5,0-0.9-0.4-0.9-0.9c0-0.5,0.4-0.9,0.9-0.9c0.5,0,0.9,0.4,0.9,0.9C8.8,16.9,8.4,17.3,7.9,17.3z M6.4,14.6H2.5
		c-0.2,0-0.3,0.1-0.3,0.3v0.9c0,0.2,0.1,0.3,0.3,0.3h3.2C5.7,15.5,6,15,6.4,14.6z M17.1,14.6c-1,0-1.8,0.8-1.8,1.8
		c0,1,0.8,1.8,1.8,1.8c1,0,1.8-0.8,1.8-1.8C18.9,15.4,18.1,14.6,17.1,14.6z M17.1,17.3c-0.5,0-0.9-0.4-0.9-0.9
		c0-0.5,0.4-0.9,0.9-0.9c0.5,0,0.9,0.4,0.9,0.9C18,16.9,17.6,17.3,17.1,17.3z M21.7,14.6H21v-3.8c0-0.4-0.1-0.9-0.4-1.3L18.9,7
		c-0.4-0.6-1.1-1-1.9-1h-2.7c-0.3,0-0.6,0.3-0.6,0.6v8.1H9.4c0.4,0.4,0.7,0.9,0.8,1.4h4.6c0.2-1.1,1.1-2,2.3-2c1.2,0,2.1,0.9,2.3,2
		h2.3c0.2,0,0.3-0.1,0.3-0.3v-0.9C22,14.8,21.9,14.6,21.7,14.6z M18.9,10h-3.5c-0.2,0-0.3-0.1-0.3-0.3v-2c0-0.2,0.1-0.3,0.3-0.3h2.1
		c0.1,0,0.2,0,0.2,0.1l1.4,2C19.3,9.8,19.1,10,18.9,10z M12.5,14.1H2.6c-0.3,0-0.6-0.3-0.6-0.6v-2.5c0-0.3,0.3-0.6,0.6-0.6h9.9
		c0.3,0,0.6,0.3,0.6,0.6v2.5C13,13.8,12.8,14.1,12.5,14.1z M6.5,9.5h-4C2.3,9.5,2,9.3,2,9V6.4c0-0.3,0.3-0.6,0.6-0.6h4
		c0.3,0,0.6,0.3,0.6,0.6V9C7.1,9.3,6.8,9.5,6.5,9.5z M12.5,9.5h-4C8.2,9.5,7.9,9.3,7.9,9V6.4c0-0.3,0.3-0.6,0.6-0.6h4
		c0.3,0,0.6,0.3,0.6,0.6V9C13,9.3,12.8,9.5,12.5,9.5z"/>
</g>
</svg>
