<svg xmlns="http://www.w3.org/2000/svg" width="24" height="24" viewBox="0 0 24 24">
  <path fill="none" d="M0,0h24v24H0V0z"/>
  <rect x="1" y="3.2" width="2.2" height="17.6"/>
  <rect x="7.6" y="3.2" width="3.3" height="17.6"/>
  <rect x="17.5" y="3.2" width="1.1" height="17.6"/>
  <rect x="5.4" y="3.2" width="1.1" height="17.6"/>
  <rect x="20.8" y="3.2" width="2.2" height="17.6"/>
  <rect x="13.1" y="3.2" width="2.2" height="17.6"/>
</svg>
