<?xml version="1.0" encoding="utf-8"?>
<!-- Generator: Adobe Illustrator 21.1.0, SVG Export Plug-In . SVG Version: 6.00 Build 0)  -->
<svg version="1.1" id="Layer_1" xmlns="http://www.w3.org/2000/svg" xmlns:xlink="http://www.w3.org/1999/xlink" x="0px" y="0px"
	 viewBox="0 0 28 36" style="enable-background:new 0 0 28 36;" xml:space="preserve">
<style type="text/css">
	.st0{fill:#bdbdbd;}
	.st1{fill:#919191;}
</style>
<g>
	<path class="st0" d="M28,13.8c0,3.2-1.1,6.2-3,8.6L14,36L3,22.4C1.1,20,0,17,0,13.8C0,6.2,6.3,0,14,0S28,6.2,28,13.8z"/>
</g>
<polygon class="st1" points="18.9,9 11.9,16.5 9.1,13.5 7,15.8 11.9,21 21,11.3 "/>
</svg>
