<?xml version="1.0" encoding="utf-8"?>
<!-- Generator: Adobe Illustrator 21.1.0, SVG Export Plug-In . SVG Version: 6.00 Build 0)  -->
<svg version="1.1" id="Layer_1" xmlns="http://www.w3.org/2000/svg" xmlns:xlink="http://www.w3.org/1999/xlink" x="0px" y="0px"
	 viewBox="0 0 512 482" style="enable-background:new 0 0 512 482;" xml:space="preserve">
<style type="text/css">
	.st0{fill:#C3D9DE;}
	.st1{fill:#D4E8EF;}
	.st2{fill:#F3FAFC;}
	.st3{fill:#353849;}
	.st4{fill:#FFFFFF;}
	.st5{fill:#78C7C9;}
</style>
<g>
	<rect x="246.4" y="52.3" class="st0" width="19.2" height="74.8"/>
	<g>
		<g>
			<path class="st1" d="M410.1,370.2h35.6c33.3,0,60.3-27,60.3-60.3v-16c0-33.3-27-60.3-60.3-60.3h-35.6V370.2z"/>
		</g>
		<g>
			<path class="st1" d="M101.9,370.2H66.3C33,370.2,6,343.3,6,310v-16c0-33.3,27-60.3,60.3-60.3h35.6V370.2z"/>
		</g>
	</g>
	<g>
		<path class="st1" d="M312.8,474.7H199.2c-78,0-141.3-63.3-141.3-141.3v-59c0-78,63.3-141.3,141.3-141.3h113.5
			c78,0,141.3,63.3,141.3,141.3v59C454.1,411.4,390.8,474.7,312.8,474.7z"/>
	</g>
	<g>
		<path class="st2" d="M312.8,453.1H199.2c-78,0-141.3-63.3-141.3-141.3v-59c0-78,63.3-141.3,141.3-141.3h113.5
			c78,0,141.3,63.3,141.3,141.3v59C454.1,389.8,390.8,453.1,312.8,453.1z"/>
	</g>
	<g>
		<path class="st0" d="M194.1,405.4c-51.5,0-93.4-41.9-93.4-93.4v-43.3c0-51.5,41.9-93.4,93.4-93.4h123.8
			c51.5,0,93.4,41.9,93.4,93.4V312c0,51.5-41.9,93.4-93.4,93.4H194.1z"/>
	</g>
	<g>
		<path class="st3" d="M195.7,409.9c-50.1,0-90.9-40.8-90.9-90.9v-37.7c0-50.1,40.8-90.9,90.9-90.9h120.6
			c50.1,0,90.9,40.8,90.9,90.9V319c0,50.1-40.8,90.9-90.9,90.9H195.7z"/>
	</g>
	<g>
		<path class="st4" d="M256,53.8"/>
		<path class="st4" d="M256,118.4"/>
	</g>
	<g>
		<circle class="st2" cx="256" cy="39.3" r="32"/>
	</g>
	<g>
		<path class="st5" d="M184.1,251.7c-11.3,0-20.4,9.2-20.4,20.4c0,11.3,9.2,20.4,20.4,20.4c11.3,0,20.4-9.2,20.4-20.4
			C204.5,260.9,195.4,251.7,184.1,251.7z"/>
		<path class="st5" d="M327.9,251.7c-11.3,0-20.4,9.2-20.4,20.4c0,11.3,9.2,20.4,20.4,20.4c11.3,0,20.4-9.2,20.4-20.4
			C348.3,260.9,339.1,251.7,327.9,251.7z"/>
	</g>
	<g>
		<path class="st5" d="M296.7,308.3h-81.3c-4,0-7.3,3.3-7.3,7.3c0,26.4,21.5,47.9,47.9,47.9c26.4,0,47.9-21.5,47.9-47.9
			C303.9,311.5,300.7,308.3,296.7,308.3z"/>
	</g>
</g>
</svg>
