<?xml version="1.0" encoding="utf-8"?>
<!-- Generator: Adobe Illustrator 21.1.0, SVG Export Plug-In . SVG Version: 6.00 Build 0)  -->
<svg version="1.1" id="Layer_1" xmlns="http://www.w3.org/2000/svg" xmlns:xlink="http://www.w3.org/1999/xlink" x="0px" y="0px"
	 viewBox="0 0 36 36" style="enable-background:new 0 0 36 36;" xml:space="preserve">
<style type="text/css">
	.st0{fill:#2C405A;}
	.st1{fill:#919191;}
	.st2{fill:#FFFFFF;}
</style>
<path class="st0" d="M7,18c0,6.1,4.9,11,11,11v7C8.1,36,0,27.9,0,18S8.1,0,18,0v7C11.9,7,7,11.9,7,18z"/>
<path class="st1" d="M36,18c0,9.9-8.1,18-18,18v-7c6.1,0,11-4.9,11-11S24.1,7,18,7V0C27.9,0,36,8.1,36,18z"/>
<circle class="st2" cx="18" cy="18" r="11"/>
</svg>
