<?xml version="1.0" encoding="utf-8"?>
<!-- Generator: Adobe Illustrator 21.1.0, SVG Export Plug-In . SVG Version: 6.00 Build 0)  -->
<svg version="1.1" id="Layer_1" xmlns="http://www.w3.org/2000/svg" xmlns:xlink="http://www.w3.org/1999/xlink" x="0px" y="0px"
	 viewBox="0 0 36 36" style="enable-background:new 0 0 36 36;" xml:space="preserve">
<style type="text/css">
	.st0{fill:#e74c3c;}
	.st1{fill:#2C405A;}
	.st2{fill:#919191;}
	.st3{fill:#FFFFFF;}
</style>
<path class="st0" d="M18,0v18L2.4,27C0.9,24.3,0,21.3,0,18C0,8.1,8.1,0,18,0z"/>
<path class="st1" d="M36,18c0,3.3-0.9,6.3-2.4,9L18,18V0C27.9,0,36,8.1,36,18z"/>
<path class="st2" d="M33.6,27c-3.1,5.4-8.9,9-15.6,9S5.5,32.4,2.4,27L18,18L33.6,27z"/>
<circle class="st3" cx="18" cy="18" r="11"/>
</svg>
